// Jest Snapshot v1, https://goo.gl/fbAQLP

exports[`Bookmarks should render correctly 1`] = `
<RNCSafeAreaView
  style={
    Object {
      "flex": 1,
    }
  }
>
  <View
    accessibilityRole="button"
    accessible={true}
    focusable={true}
    onClick={[Function]}
    onResponderGrant={[Function]}
    onResponderMove={[Function]}
    onResponderRelease={[Function]}
    onResponderTerminate={[Function]}
    onResponderTerminationRequest={[Function]}
    onStartShouldSetResponder={[Function]}
    style={
      Object {
        "alignSelf": "flex-start",
        "marginBottom": 16,
        "marginLeft": 14,
        "opacity": 1,
      }
    }
  >
    <svg
      data-file-name="SvgBack"
      height={32}
      width={32}
    />
  </View>
  <RCTScrollView
    data={
      Array [
        Object {
          "body": "body",
          "closed_at": null,
          "created_at": "2012-04-23T18:25:43.511Z",
          "number": 1,
          "owner": "owner",
          "repo": "repo",
          "title": "title",
          "user": Object {
            "avatar_url": "",
            "login": "login",
          },
        },
      ]
    }
    disableVirtualization={false}
    getItem={[Function]}
    getItemCount={[Function]}
    horizontal={false}
    initialNumToRender={10}
    keyExtractor={[Function]}
    maxToRenderPerBatch={10}
    onContentSizeChange={[Function]}
    onEndReachedThreshold={2}
    onLayout={[Function]}
    onMomentumScrollEnd={[Function]}
    onScroll={[Function]}
    onScrollBeginDrag={[Function]}
    onScrollEndDrag={[Function]}
    refreshControl={
      <RefreshControlMock
        onRefresh={[Function]}
        refreshing={false}
      />
    }
    removeClippedSubviews={false}
    renderItem={[Function]}
    scrollEventThrottle={50}
    stickyHeaderIndices={Array []}
    updateCellsBatchingPeriod={50}
    viewabilityConfigCallbackPairs={Array []}
    windowSize={21}
  >
    <RCTRefreshControl />
    <View>
      <View
        onLayout={[Function]}
        style={null}
      >
        <View
          accessible={true}
          focusable={true}
          onClick={[Function]}
          onResponderGrant={[Function]}
          onResponderMove={[Function]}
          onResponderRelease={[Function]}
          onResponderTerminate={[Function]}
          onResponderTerminationRequest={[Function]}
          onStartShouldSetResponder={[Function]}
          style={
            Object {
              "backgroundColor": "#fff",
              "borderColor": "rgb(208, 215, 222)",
              "borderWidth": 1,
              "minHeight": 62,
              "opacity": 1,
              "padding": 8,
            }
          }
        >
          <View
            style={
              Object {
                "flexDirection": "row",
              }
            }
          >
            <svg
              data-file-name="SvgOpenIssue"
              style={
                Object {
                  "marginHorizontal": 8,
                }
              }
            />
            <View
              style={
                Object {
                  "flex": 1,
                }
              }
            >
              <Text
                numberOfLines={1}
                style={
                  Object {
                    "color": "#24292f",
                    "fontFamily": "Helvetica",
                    "fontSize": 16,
                    "fontWeight": "600",
                    "lineHeight": 24,
                  }
                }
              >
                title
              </Text>
              <Text
                numberOfLines={1}
                style={
                  Object {
                    "color": "rgb(87, 96, 106)",
                    "fontFamily": "Helvetica",
                    "fontSize": 12,
                    "lineHeight": 18,
                    "marginTop": 4,
                  }
                }
              >
                #1 opened on 23/04/2012, 21:25:43 by login
              </Text>
            </View>
            <View
              accessible={true}
              focusable={true}
              onClick={[Function]}
              onResponderGrant={[Function]}
              onResponderMove={[Function]}
              onResponderRelease={[Function]}
              onResponderTerminate={[Function]}
              onResponderTerminationRequest={[Function]}
              onStartShouldSetResponder={[Function]}
              style={
                Object {
                  "opacity": 1,
                }
              }
            >
              <svg
                data-file-name="SvgBook"
              />
            </View>
          </View>
        </View>
      </View>
    </View>
  </RCTScrollView>
</RNCSafeAreaView>
`;
